^D:\REPOS\OVERLORD\W11_STARTPROJECT\OVERLORDENGINE\STDAFX.CPP
/c /ID:\REPOS\OVERLORD\W11_STARTPROJECT\LIBS\DX_TEX\INCLUDE /ID:\REPOS\OVERLORD\W11_STARTPROJECT\LIBS\FMOD\INC /ID:\REPOS\OVERLORD\W11_STARTPROJECT\LIBS\DX_EFFECTS11\INCLUDE /ID:\REPOS\OVERLORD\W11_STARTPROJECT\LIBS\PHYSX\INCLUDE /I"C:\PROGRAM FILES (X86)\VISUAL LEAK DETECTOR\INCLUDE" /ZI /JMC /nologo /W4 /WX /diagnostics:classic /Od /Oy- /D WIN32 /D _DEBUG /D _UNICODE /D UNICODE /Gm- /EHsc /RTC1 /MDd /GS /fp:precise /Zc:wchar_t /Zc:forScope /Zc:inline /Yc"stdafx.h" /Fp"DEBUG\OVERLORDENGINE.PCH" /Fo"DEBUG\\" /Fd"DEBUG\OVERLORDENGINE.PDB" /Gd /TP /analyze- /FC D:\REPOS\OVERLORD\W11_STARTPROJECT\OVERLORDENGINE\STDAFX.CPP
^D:\REPOS\OVERLORD\W11_STARTPROJECT\OVERLORDENGINE\MATERIAL.CPP
/c /ID:\REPOS\OVERLORD\W11_STARTPROJECT\LIBS\DX_TEX\INCLUDE /ID:\REPOS\OVERLORD\W11_STARTPROJECT\LIBS\FMOD\INC /ID:\REPOS\OVERLORD\W11_STARTPROJECT\LIBS\DX_EFFECTS11\INCLUDE /ID:\REPOS\OVERLORD\W11_STARTPROJECT\LIBS\PHYSX\INCLUDE /I"C:\PROGRAM FILES (X86)\VISUAL LEAK DETECTOR\INCLUDE" /ZI /JMC /nologo /W4 /WX /diagnostics:classic /Od /Oy- /D WIN32 /D _DEBUG /D _UNICODE /D UNICODE /Gm- /EHsc /RTC1 /MDd /GS /fp:precise /Zc:wchar_t /Zc:forScope /Zc:inline /Yu"stdafx.h" /Fp"DEBUG\OVERLORDENGINE.PCH" /Fo"DEBUG\\" /Fd"DEBUG\OVERLORDENGINE.PDB" /Gd /TP /analyze- /FC D:\REPOS\OVERLORD\W11_STARTPROJECT\OVERLORDENGINE\MATERIAL.CPP
^D:\REPOS\OVERLORD\W11_STARTPROJECT\OVERLORDENGINE\MATERIALMANAGER.CPP
/c /ID:\REPOS\OVERLORD\W11_STARTPROJECT\LIBS\DX_TEX\INCLUDE /ID:\REPOS\OVERLORD\W11_STARTPROJECT\LIBS\FMOD\INC /ID:\REPOS\OVERLORD\W11_STARTPROJECT\LIBS\DX_EFFECTS11\INCLUDE /ID:\REPOS\OVERLORD\W11_STARTPROJECT\LIBS\PHYSX\INCLUDE /I"C:\PROGRAM FILES (X86)\VISUAL LEAK DETECTOR\INCLUDE" /ZI /JMC /nologo /W4 /WX /diagnostics:classic /Od /Oy- /D WIN32 /D _DEBUG /D _UNICODE /D UNICODE /Gm- /EHsc /RTC1 /MDd /GS /fp:precise /Zc:wchar_t /Zc:forScope /Zc:inline /Yu"stdafx.h" /Fp"DEBUG\OVERLORDENGINE.PCH" /Fo"DEBUG\\" /Fd"DEBUG\OVERLORDENGINE.PDB" /Gd /TP /analyze- /FC D:\REPOS\OVERLORD\W11_STARTPROJECT\OVERLORDENGINE\MATERIALMANAGER.CPP
^D:\REPOS\OVERLORD\W11_STARTPROJECT\OVERLORDENGINE\MESHFILTER.CPP
/c /ID:\REPOS\OVERLORD\W11_STARTPROJECT\LIBS\DX_TEX\INCLUDE /ID:\REPOS\OVERLORD\W11_STARTPROJECT\LIBS\FMOD\INC /ID:\REPOS\OVERLORD\W11_STARTPROJECT\LIBS\DX_EFFECTS11\INCLUDE /ID:\REPOS\OVERLORD\W11_STARTPROJECT\LIBS\PHYSX\INCLUDE /I"C:\PROGRAM FILES (X86)\VISUAL LEAK DETECTOR\INCLUDE" /ZI /JMC /nologo /W4 /WX /diagnostics:classic /Od /Oy- /D WIN32 /D _DEBUG /D _UNICODE /D UNICODE /Gm- /EHsc /RTC1 /MDd /GS /fp:precise /Zc:wchar_t /Zc:forScope /Zc:inline /Yu"stdafx.h" /Fp"DEBUG\OVERLORDENGINE.PCH" /Fo"DEBUG\\" /Fd"DEBUG\OVERLORDENGINE.PDB" /Gd /TP /analyze- /FC D:\REPOS\OVERLORD\W11_STARTPROJECT\OVERLORDENGINE\MESHFILTER.CPP
^D:\REPOS\OVERLORD\W11_STARTPROJECT\OVERLORDENGINE\MESHFILTERLOADER.CPP
/c /ID:\REPOS\OVERLORD\W11_STARTPROJECT\LIBS\DX_TEX\INCLUDE /ID:\REPOS\OVERLORD\W11_STARTPROJECT\LIBS\FMOD\INC /ID:\REPOS\OVERLORD\W11_STARTPROJECT\LIBS\DX_EFFECTS11\INCLUDE /ID:\REPOS\OVERLORD\W11_STARTPROJECT\LIBS\PHYSX\INCLUDE /I"C:\PROGRAM FILES (X86)\VISUAL LEAK DETECTOR\INCLUDE" /ZI /JMC /nologo /W4 /WX /diagnostics:classic /Od /Oy- /D WIN32 /D _DEBUG /D _UNICODE /D UNICODE /Gm- /EHsc /RTC1 /MDd /GS /fp:precise /Zc:wchar_t /Zc:forScope /Zc:inline /Yu"stdafx.h" /Fp"DEBUG\OVERLORDENGINE.PCH" /Fo"DEBUG\\" /Fd"DEBUG\OVERLORDENGINE.PDB" /Gd /TP /analyze- /FC D:\REPOS\OVERLORD\W11_STARTPROJECT\OVERLORDENGINE\MESHFILTERLOADER.CPP
^D:\REPOS\OVERLORD\W11_STARTPROJECT\OVERLORDENGINE\MODELCOMPONENT.CPP
/c /ID:\REPOS\OVERLORD\W11_STARTPROJECT\LIBS\DX_TEX\INCLUDE /ID:\REPOS\OVERLORD\W11_STARTPROJECT\LIBS\FMOD\INC /ID:\REPOS\OVERLORD\W11_STARTPROJECT\LIBS\DX_EFFECTS11\INCLUDE /ID:\REPOS\OVERLORD\W11_STARTPROJECT\LIBS\PHYSX\INCLUDE /I"C:\PROGRAM FILES (X86)\VISUAL LEAK DETECTOR\INCLUDE" /ZI /JMC /nologo /W4 /WX /diagnostics:classic /Od /Oy- /D WIN32 /D _DEBUG /D _UNICODE /D UNICODE /Gm- /EHsc /RTC1 /MDd /GS /fp:precise /Zc:wchar_t /Zc:forScope /Zc:inline /Yu"stdafx.h" /Fp"DEBUG\OVERLORDENGINE.PCH" /Fo"DEBUG\\" /Fd"DEBUG\OVERLORDENGINE.PDB" /Gd /TP /analyze- /FC D:\REPOS\OVERLORD\W11_STARTPROJECT\OVERLORDENGINE\MODELCOMPONENT.CPP
^D:\REPOS\OVERLORD\W11_STARTPROJECT\OVERLORDENGINE\POSTPROCESSINGMATERIAL.CPP
/c /ID:\REPOS\OVERLORD\W11_STARTPROJECT\LIBS\DX_TEX\INCLUDE /ID:\REPOS\OVERLORD\W11_STARTPROJECT\LIBS\FMOD\INC /ID:\REPOS\OVERLORD\W11_STARTPROJECT\LIBS\DX_EFFECTS11\INCLUDE /ID:\REPOS\OVERLORD\W11_STARTPROJECT\LIBS\PHYSX\INCLUDE /I"C:\PROGRAM FILES (X86)\VISUAL LEAK DETECTOR\INCLUDE" /ZI /JMC /nologo /W4 /WX /diagnostics:classic /Od /Oy- /D WIN32 /D _DEBUG /D _UNICODE /D UNICODE /Gm- /EHsc /RTC1 /MDd /GS /fp:precise /Zc:wchar_t /Zc:forScope /Zc:inline /Yu"stdafx.h" /Fp"DEBUG\OVERLORDENGINE.PCH" /Fo"DEBUG\\" /Fd"DEBUG\OVERLORDENGINE.PDB" /Gd /TP /analyze- /FC D:\REPOS\OVERLORD\W11_STARTPROJECT\OVERLORDENGINE\POSTPROCESSINGMATERIAL.CPP
^D:\REPOS\OVERLORD\W11_STARTPROJECT\OVERLORDENGINE\PXCONVEXMESHLOADER.CPP
/c /ID:\REPOS\OVERLORD\W11_STARTPROJECT\LIBS\DX_TEX\INCLUDE /ID:\REPOS\OVERLORD\W11_STARTPROJECT\LIBS\FMOD\INC /ID:\REPOS\OVERLORD\W11_STARTPROJECT\LIBS\DX_EFFECTS11\INCLUDE /ID:\REPOS\OVERLORD\W11_STARTPROJECT\LIBS\PHYSX\INCLUDE /I"C:\PROGRAM FILES (X86)\VISUAL LEAK DETECTOR\INCLUDE" /ZI /JMC /nologo /W4 /WX /diagnostics:classic /Od /Oy- /D WIN32 /D _DEBUG /D _UNICODE /D UNICODE /Gm- /EHsc /RTC1 /MDd /GS /fp:precise /Zc:wchar_t /Zc:forScope /Zc:inline /Yu"stdafx.h" /Fp"DEBUG\OVERLORDENGINE.PCH" /Fo"DEBUG\\" /Fd"DEBUG\OVERLORDENGINE.PDB" /Gd /TP /analyze- /FC D:\REPOS\OVERLORD\W11_STARTPROJECT\OVERLORDENGINE\PXCONVEXMESHLOADER.CPP
^D:\REPOS\OVERLORD\W11_STARTPROJECT\OVERLORDENGINE\PXTRIANGLEMESHLOADER.CPP
/c /ID:\REPOS\OVERLORD\W11_STARTPROJECT\LIBS\DX_TEX\INCLUDE /ID:\REPOS\OVERLORD\W11_STARTPROJECT\LIBS\FMOD\INC /ID:\REPOS\OVERLORD\W11_STARTPROJECT\LIBS\DX_EFFECTS11\INCLUDE /ID:\REPOS\OVERLORD\W11_STARTPROJECT\LIBS\PHYSX\INCLUDE /I"C:\PROGRAM FILES (X86)\VISUAL LEAK DETECTOR\INCLUDE" /ZI /JMC /nologo /W4 /WX /diagnostics:classic /Od /Oy- /D WIN32 /D _DEBUG /D _UNICODE /D UNICODE /Gm- /EHsc /RTC1 /MDd /GS /fp:precise /Zc:wchar_t /Zc:forScope /Zc:inline /Yu"stdafx.h" /Fp"DEBUG\OVERLORDENGINE.PCH" /Fo"DEBUG\\" /Fd"DEBUG\OVERLORDENGINE.PDB" /Gd /TP /analyze- /FC D:\REPOS\OVERLORD\W11_STARTPROJECT\OVERLORDENGINE\PXTRIANGLEMESHLOADER.CPP
^D:\REPOS\OVERLORD\W11_STARTPROJECT\OVERLORDENGINE\QUADDRAWER.CPP
/c /ID:\REPOS\OVERLORD\W11_STARTPROJECT\LIBS\DX_TEX\INCLUDE /ID:\REPOS\OVERLORD\W11_STARTPROJECT\LIBS\FMOD\INC /ID:\REPOS\OVERLORD\W11_STARTPROJECT\LIBS\DX_EFFECTS11\INCLUDE /ID:\REPOS\OVERLORD\W11_STARTPROJECT\LIBS\PHYSX\INCLUDE /I"C:\PROGRAM FILES (X86)\VISUAL LEAK DETECTOR\INCLUDE" /ZI /JMC /nologo /W4 /WX /diagnostics:classic /Od /Oy- /D WIN32 /D _DEBUG /D _UNICODE /D UNICODE /Gm- /EHsc /RTC1 /MDd /GS /fp:precise /Zc:wchar_t /Zc:forScope /Zc:inline /Yu"stdafx.h" /Fp"DEBUG\OVERLORDENGINE.PCH" /Fo"DEBUG\\" /Fd"DEBUG\OVERLORDENGINE.PDB" /Gd /TP /analyze- /FC D:\REPOS\OVERLORD\W11_STARTPROJECT\OVERLORDENGINE\QUADDRAWER.CPP
^D:\REPOS\OVERLORD\W11_STARTPROJECT\OVERLORDENGINE\QUADMATERIAL.CPP
/c /ID:\REPOS\OVERLORD\W11_STARTPROJECT\LIBS\DX_TEX\INCLUDE /ID:\REPOS\OVERLORD\W11_STARTPROJECT\LIBS\FMOD\INC /ID:\REPOS\OVERLORD\W11_STARTPROJECT\LIBS\DX_EFFECTS11\INCLUDE /ID:\REPOS\OVERLORD\W11_STARTPROJECT\LIBS\PHYSX\INCLUDE /I"C:\PROGRAM FILES (X86)\VISUAL LEAK DETECTOR\INCLUDE" /ZI /JMC /nologo /W4 /WX /diagnostics:classic /Od /Oy- /D WIN32 /D _DEBUG /D _UNICODE /D UNICODE /Gm- /EHsc /RTC1 /MDd /GS /fp:precise /Zc:wchar_t /Zc:forScope /Zc:inline /Yu"stdafx.h" /Fp"DEBUG\OVERLORDENGINE.PCH" /Fo"DEBUG\\" /Fd"DEBUG\OVERLORDENGINE.PDB" /Gd /TP /analyze- /FC D:\REPOS\OVERLORD\W11_STARTPROJECT\OVERLORDENGINE\QUADMATERIAL.CPP
^D:\REPOS\OVERLORD\W11_STARTPROJECT\OVERLORDENGINE\SOUNDMANAGER.CPP
/c /ID:\REPOS\OVERLORD\W11_STARTPROJECT\LIBS\DX_TEX\INCLUDE /ID:\REPOS\OVERLORD\W11_STARTPROJECT\LIBS\FMOD\INC /ID:\REPOS\OVERLORD\W11_STARTPROJECT\LIBS\DX_EFFECTS11\INCLUDE /ID:\REPOS\OVERLORD\W11_STARTPROJECT\LIBS\PHYSX\INCLUDE /I"C:\PROGRAM FILES (X86)\VISUAL LEAK DETECTOR\INCLUDE" /ZI /JMC /nologo /W4 /WX /diagnostics:classic /Od /Oy- /D WIN32 /D _DEBUG /D _UNICODE /D UNICODE /Gm- /EHsc /RTC1 /MDd /GS /fp:precise /Zc:wchar_t /Zc:forScope /Zc:inline /Yu"stdafx.h" /Fp"DEBUG\OVERLORDENGINE.PCH" /Fo"DEBUG\\" /Fd"DEBUG\OVERLORDENGINE.PDB" /Gd /TP /analyze- /FC D:\REPOS\OVERLORD\W11_STARTPROJECT\OVERLORDENGINE\SOUNDMANAGER.CPP
^D:\REPOS\OVERLORD\W11_STARTPROJECT\OVERLORDENGINE\RIGIDBODYCOMPONENT.CPP
/c /ID:\REPOS\OVERLORD\W11_STARTPROJECT\LIBS\DX_TEX\INCLUDE /ID:\REPOS\OVERLORD\W11_STARTPROJECT\LIBS\FMOD\INC /ID:\REPOS\OVERLORD\W11_STARTPROJECT\LIBS\DX_EFFECTS11\INCLUDE /ID:\REPOS\OVERLORD\W11_STARTPROJECT\LIBS\PHYSX\INCLUDE /I"C:\PROGRAM FILES (X86)\VISUAL LEAK DETECTOR\INCLUDE" /ZI /JMC /nologo /W4 /WX /diagnostics:classic /Od /Oy- /D WIN32 /D _DEBUG /D _UNICODE /D UNICODE /Gm- /EHsc /RTC1 /MDd /GS /fp:precise /Zc:wchar_t /Zc:forScope /Zc:inline /Yu"stdafx.h" /Fp"DEBUG\OVERLORDENGINE.PCH" /Fo"DEBUG\\" /Fd"DEBUG\OVERLORDENGINE.PDB" /Gd /TP /analyze- /FC D:\REPOS\OVERLORD\W11_STARTPROJECT\OVERLORDENGINE\RIGIDBODYCOMPONENT.CPP
^D:\REPOS\OVERLORD\W11_STARTPROJECT\OVERLORDENGINE\INPUTMANAGER.CPP
/c /ID:\REPOS\OVERLORD\W11_STARTPROJECT\LIBS\DX_TEX\INCLUDE /ID:\REPOS\OVERLORD\W11_STARTPROJECT\LIBS\FMOD\INC /ID:\REPOS\OVERLORD\W11_STARTPROJECT\LIBS\DX_EFFECTS11\INCLUDE /ID:\REPOS\OVERLORD\W11_STARTPROJECT\LIBS\PHYSX\INCLUDE /I"C:\PROGRAM FILES (X86)\VISUAL LEAK DETECTOR\INCLUDE" /ZI /JMC /nologo /W4 /WX /diagnostics:classic /Od /Oy- /D WIN32 /D _DEBUG /D _UNICODE /D UNICODE /Gm- /EHsc /RTC1 /MDd /GS /fp:precise /Zc:wchar_t /Zc:forScope /Zc:inline /Yu"stdafx.h" /Fp"DEBUG\OVERLORDENGINE.PCH" /Fo"DEBUG\\" /Fd"DEBUG\OVERLORDENGINE.PDB" /Gd /TP /analyze- /FC D:\REPOS\OVERLORD\W11_STARTPROJECT\OVERLORDENGINE\INPUTMANAGER.CPP
^D:\REPOS\OVERLORD\W11_STARTPROJECT\OVERLORDENGINE\COLLIDERCOMPONENT.CPP
/c /ID:\REPOS\OVERLORD\W11_STARTPROJECT\LIBS\DX_TEX\INCLUDE /ID:\REPOS\OVERLORD\W11_STARTPROJECT\LIBS\FMOD\INC /ID:\REPOS\OVERLORD\W11_STARTPROJECT\LIBS\DX_EFFECTS11\INCLUDE /ID:\REPOS\OVERLORD\W11_STARTPROJECT\LIBS\PHYSX\INCLUDE /I"C:\PROGRAM FILES (X86)\VISUAL LEAK DETECTOR\INCLUDE" /ZI /JMC /nologo /W4 /WX /diagnostics:classic /Od /Oy- /D WIN32 /D _DEBUG /D _UNICODE /D UNICODE /Gm- /EHsc /RTC1 /MDd /GS /fp:precise /Zc:wchar_t /Zc:forScope /Zc:inline /Yu"stdafx.h" /Fp"DEBUG\OVERLORDENGINE.PCH" /Fo"DEBUG\\" /Fd"DEBUG\OVERLORDENGINE.PDB" /Gd /TP /analyze- /FC D:\REPOS\OVERLORD\W11_STARTPROJECT\OVERLORDENGINE\COLLIDERCOMPONENT.CPP
^D:\REPOS\OVERLORD\W11_STARTPROJECT\OVERLORDENGINE\CAMERACOMPONENT.CPP
/c /ID:\REPOS\OVERLORD\W11_STARTPROJECT\LIBS\DX_TEX\INCLUDE /ID:\REPOS\OVERLORD\W11_STARTPROJECT\LIBS\FMOD\INC /ID:\REPOS\OVERLORD\W11_STARTPROJECT\LIBS\DX_EFFECTS11\INCLUDE /ID:\REPOS\OVERLORD\W11_STARTPROJECT\LIBS\PHYSX\INCLUDE /I"C:\PROGRAM FILES (X86)\VISUAL LEAK DETECTOR\INCLUDE" /ZI /JMC /nologo /W4 /WX /diagnostics:classic /Od /Oy- /D WIN32 /D _DEBUG /D _UNICODE /D UNICODE /Gm- /EHsc /RTC1 /MDd /GS /fp:precise /Zc:wchar_t /Zc:forScope /Zc:inline /Yu"stdafx.h" /Fp"DEBUG\OVERLORDENGINE.PCH" /Fo"DEBUG\\" /Fd"DEBUG\OVERLORDENGINE.PDB" /Gd /TP /analyze- /FC D:\REPOS\OVERLORD\W11_STARTPROJECT\OVERLORDENGINE\CAMERACOMPONENT.CPP
^D:\REPOS\OVERLORD\W11_STARTPROJECT\OVERLORDENGINE\BASECOMPONENT.CPP
/c /ID:\REPOS\OVERLORD\W11_STARTPROJECT\LIBS\DX_TEX\INCLUDE /ID:\REPOS\OVERLORD\W11_STARTPROJECT\LIBS\FMOD\INC /ID:\REPOS\OVERLORD\W11_STARTPROJECT\LIBS\DX_EFFECTS11\INCLUDE /ID:\REPOS\OVERLORD\W11_STARTPROJECT\LIBS\PHYSX\INCLUDE /I"C:\PROGRAM FILES (X86)\VISUAL LEAK DETECTOR\INCLUDE" /ZI /JMC /nologo /W4 /WX /diagnostics:classic /Od /Oy- /D WIN32 /D _DEBUG /D _UNICODE /D UNICODE /Gm- /EHsc /RTC1 /MDd /GS /fp:precise /Zc:wchar_t /Zc:forScope /Zc:inline /Yu"stdafx.h" /Fp"DEBUG\OVERLORDENGINE.PCH" /Fo"DEBUG\\" /Fd"DEBUG\OVERLORDENGINE.PDB" /Gd /TP /analyze- /FC D:\REPOS\OVERLORD\W11_STARTPROJECT\OVERLORDENGINE\BASECOMPONENT.CPP
^D:\REPOS\OVERLORD\W11_STARTPROJECT\OVERLORDENGINE\OVERLORDGAME.CPP
/c /ID:\REPOS\OVERLORD\W11_STARTPROJECT\LIBS\DX_TEX\INCLUDE /ID:\REPOS\OVERLORD\W11_STARTPROJECT\LIBS\FMOD\INC /ID:\REPOS\OVERLORD\W11_STARTPROJECT\LIBS\DX_EFFECTS11\INCLUDE /ID:\REPOS\OVERLORD\W11_STARTPROJECT\LIBS\PHYSX\INCLUDE /I"C:\PROGRAM FILES (X86)\VISUAL LEAK DETECTOR\INCLUDE" /ZI /JMC /nologo /W4 /WX /diagnostics:classic /Od /Oy- /D WIN32 /D _DEBUG /D _UNICODE /D UNICODE /Gm- /EHsc /RTC1 /MDd /GS /fp:precise /Zc:wchar_t /Zc:forScope /Zc:inline /Yu"stdafx.h" /Fp"DEBUG\OVERLORDENGINE.PCH" /Fo"DEBUG\\" /Fd"DEBUG\OVERLORDENGINE.PDB" /Gd /TP /analyze- /FC D:\REPOS\OVERLORD\W11_STARTPROJECT\OVERLORDENGINE\OVERLORDGAME.CPP
^D:\REPOS\OVERLORD\W11_STARTPROJECT\OVERLORDENGINE\MESHDRAWCOMPONENT.CPP
/c /ID:\REPOS\OVERLORD\W11_STARTPROJECT\LIBS\DX_TEX\INCLUDE /ID:\REPOS\OVERLORD\W11_STARTPROJECT\LIBS\FMOD\INC /ID:\REPOS\OVERLORD\W11_STARTPROJECT\LIBS\DX_EFFECTS11\INCLUDE /ID:\REPOS\OVERLORD\W11_STARTPROJECT\LIBS\PHYSX\INCLUDE /I"C:\PROGRAM FILES (X86)\VISUAL LEAK DETECTOR\INCLUDE" /ZI /JMC /nologo /W4 /WX /diagnostics:classic /Od /Oy- /D WIN32 /D _DEBUG /D _UNICODE /D UNICODE /Gm- /EHsc /RTC1 /MDd /GS /fp:precise /Zc:wchar_t /Zc:forScope /Zc:inline /Yu"stdafx.h" /Fp"DEBUG\OVERLORDENGINE.PCH" /Fo"DEBUG\\" /Fd"DEBUG\OVERLORDENGINE.PDB" /Gd /TP /analyze- /FC D:\REPOS\OVERLORD\W11_STARTPROJECT\OVERLORDENGINE\MESHDRAWCOMPONENT.CPP
^D:\REPOS\OVERLORD\W11_STARTPROJECT\OVERLORDENGINE\MESHINDEXEDDRAWCOMPONENT.CPP
/c /ID:\REPOS\OVERLORD\W11_STARTPROJECT\LIBS\DX_TEX\INCLUDE /ID:\REPOS\OVERLORD\W11_STARTPROJECT\LIBS\FMOD\INC /ID:\REPOS\OVERLORD\W11_STARTPROJECT\LIBS\DX_EFFECTS11\INCLUDE /ID:\REPOS\OVERLORD\W11_STARTPROJECT\LIBS\PHYSX\INCLUDE /I"C:\PROGRAM FILES (X86)\VISUAL LEAK DETECTOR\INCLUDE" /ZI /JMC /nologo /W4 /WX /diagnostics:classic /Od /Oy- /D WIN32 /D _DEBUG /D _UNICODE /D UNICODE /Gm- /EHsc /RTC1 /MDd /GS /fp:precise /Zc:wchar_t /Zc:forScope /Zc:inline /Yu"stdafx.h" /Fp"DEBUG\OVERLORDENGINE.PCH" /Fo"DEBUG\\" /Fd"DEBUG\OVERLORDENGINE.PDB" /Gd /TP /analyze- /FC D:\REPOS\OVERLORD\W11_STARTPROJECT\OVERLORDENGINE\MESHINDEXEDDRAWCOMPONENT.CPP
^D:\REPOS\OVERLORD\W11_STARTPROJECT\OVERLORDENGINE\CONTENTMANAGER.CPP
/c /ID:\REPOS\OVERLORD\W11_STARTPROJECT\LIBS\DX_TEX\INCLUDE /ID:\REPOS\OVERLORD\W11_STARTPROJECT\LIBS\FMOD\INC /ID:\REPOS\OVERLORD\W11_STARTPROJECT\LIBS\DX_EFFECTS11\INCLUDE /ID:\REPOS\OVERLORD\W11_STARTPROJECT\LIBS\PHYSX\INCLUDE /I"C:\PROGRAM FILES (X86)\VISUAL LEAK DETECTOR\INCLUDE" /ZI /JMC /nologo /W4 /WX /diagnostics:classic /Od /Oy- /D WIN32 /D _DEBUG /D _UNICODE /D UNICODE /Gm- /EHsc /RTC1 /MDd /GS /fp:precise /Zc:wchar_t /Zc:forScope /Zc:inline /Yu"stdafx.h" /Fp"DEBUG\OVERLORDENGINE.PCH" /Fo"DEBUG\\" /Fd"DEBUG\OVERLORDENGINE.PDB" /Gd /TP /analyze- /FC D:\REPOS\OVERLORD\W11_STARTPROJECT\OVERLORDENGINE\CONTENTMANAGER.CPP
^D:\REPOS\OVERLORD\W11_STARTPROJECT\OVERLORDENGINE\EFFECTLOADER.CPP
/c /ID:\REPOS\OVERLORD\W11_STARTPROJECT\LIBS\DX_TEX\INCLUDE /ID:\REPOS\OVERLORD\W11_STARTPROJECT\LIBS\FMOD\INC /ID:\REPOS\OVERLORD\W11_STARTPROJECT\LIBS\DX_EFFECTS11\INCLUDE /ID:\REPOS\OVERLORD\W11_STARTPROJECT\LIBS\PHYSX\INCLUDE /I"C:\PROGRAM FILES (X86)\VISUAL LEAK DETECTOR\INCLUDE" /ZI /JMC /nologo /W4 /WX /diagnostics:classic /Od /Oy- /D WIN32 /D _DEBUG /D _UNICODE /D UNICODE /Gm- /EHsc /RTC1 /MDd /GS /fp:precise /Zc:wchar_t /Zc:forScope /Zc:inline /Yu"stdafx.h" /Fp"DEBUG\OVERLORDENGINE.PCH" /Fo"DEBUG\\" /Fd"DEBUG\OVERLORDENGINE.PDB" /Gd /TP /analyze- /FC D:\REPOS\OVERLORD\W11_STARTPROJECT\OVERLORDENGINE\EFFECTLOADER.CPP
^D:\REPOS\OVERLORD\W11_STARTPROJECT\OVERLORDENGINE\DEBUGRENDERER.CPP
/c /ID:\REPOS\OVERLORD\W11_STARTPROJECT\LIBS\DX_TEX\INCLUDE /ID:\REPOS\OVERLORD\W11_STARTPROJECT\LIBS\FMOD\INC /ID:\REPOS\OVERLORD\W11_STARTPROJECT\LIBS\DX_EFFECTS11\INCLUDE /ID:\REPOS\OVERLORD\W11_STARTPROJECT\LIBS\PHYSX\INCLUDE /I"C:\PROGRAM FILES (X86)\VISUAL LEAK DETECTOR\INCLUDE" /ZI /JMC /nologo /W4 /WX /diagnostics:classic /Od /Oy- /D WIN32 /D _DEBUG /D _UNICODE /D UNICODE /Gm- /EHsc /RTC1 /MDd /GS /fp:precise /Zc:wchar_t /Zc:forScope /Zc:inline /Yu"stdafx.h" /Fp"DEBUG\OVERLORDENGINE.PCH" /Fo"DEBUG\\" /Fd"DEBUG\OVERLORDENGINE.PDB" /Gd /TP /analyze- /FC D:\REPOS\OVERLORD\W11_STARTPROJECT\OVERLORDENGINE\DEBUGRENDERER.CPP
^D:\REPOS\OVERLORD\W11_STARTPROJECT\OVERLORDENGINE\EFFECTHELPER.CPP
/c /ID:\REPOS\OVERLORD\W11_STARTPROJECT\LIBS\DX_TEX\INCLUDE /ID:\REPOS\OVERLORD\W11_STARTPROJECT\LIBS\FMOD\INC /ID:\REPOS\OVERLORD\W11_STARTPROJECT\LIBS\DX_EFFECTS11\INCLUDE /ID:\REPOS\OVERLORD\W11_STARTPROJECT\LIBS\PHYSX\INCLUDE /I"C:\PROGRAM FILES (X86)\VISUAL LEAK DETECTOR\INCLUDE" /ZI /JMC /nologo /W4 /WX /diagnostics:classic /Od /Oy- /D WIN32 /D _DEBUG /D _UNICODE /D UNICODE /Gm- /EHsc /RTC1 /MDd /GS /fp:precise /Zc:wchar_t /Zc:forScope /Zc:inline /Yu"stdafx.h" /Fp"DEBUG\OVERLORDENGINE.PCH" /Fo"DEBUG\\" /Fd"DEBUG\OVERLORDENGINE.PDB" /Gd /TP /analyze- /FC D:\REPOS\OVERLORD\W11_STARTPROJECT\OVERLORDENGINE\EFFECTHELPER.CPP
^D:\REPOS\OVERLORD\W11_STARTPROJECT\OVERLORDENGINE\BINARYREADER.CPP
/c /ID:\REPOS\OVERLORD\W11_STARTPROJECT\LIBS\DX_TEX\INCLUDE /ID:\REPOS\OVERLORD\W11_STARTPROJECT\LIBS\FMOD\INC /ID:\REPOS\OVERLORD\W11_STARTPROJECT\LIBS\DX_EFFECTS11\INCLUDE /ID:\REPOS\OVERLORD\W11_STARTPROJECT\LIBS\PHYSX\INCLUDE /I"C:\PROGRAM FILES (X86)\VISUAL LEAK DETECTOR\INCLUDE" /ZI /JMC /nologo /W4 /WX /diagnostics:classic /Od /Oy- /D WIN32 /D _DEBUG /D _UNICODE /D UNICODE /Gm- /EHsc /RTC1 /MDd /GS /fp:precise /Zc:wchar_t /Zc:forScope /Zc:inline /Yu"stdafx.h" /Fp"DEBUG\OVERLORDENGINE.PCH" /Fo"DEBUG\\" /Fd"DEBUG\OVERLORDENGINE.PDB" /Gd /TP /analyze- /FC D:\REPOS\OVERLORD\W11_STARTPROJECT\OVERLORDENGINE\BINARYREADER.CPP
^D:\REPOS\OVERLORD\W11_STARTPROJECT\OVERLORDENGINE\PHYSXHELPER.CPP
/c /ID:\REPOS\OVERLORD\W11_STARTPROJECT\LIBS\DX_TEX\INCLUDE /ID:\REPOS\OVERLORD\W11_STARTPROJECT\LIBS\FMOD\INC /ID:\REPOS\OVERLORD\W11_STARTPROJECT\LIBS\DX_EFFECTS11\INCLUDE /ID:\REPOS\OVERLORD\W11_STARTPROJECT\LIBS\PHYSX\INCLUDE /I"C:\PROGRAM FILES (X86)\VISUAL LEAK DETECTOR\INCLUDE" /ZI /JMC /nologo /W4 /WX /diagnostics:classic /Od /Oy- /D WIN32 /D _DEBUG /D _UNICODE /D UNICODE /Gm- /EHsc /RTC1 /MDd /GS /fp:precise /Zc:wchar_t /Zc:forScope /Zc:inline /Yu"stdafx.h" /Fp"DEBUG\OVERLORDENGINE.PCH" /Fo"DEBUG\\" /Fd"DEBUG\OVERLORDENGINE.PDB" /Gd /TP /analyze- /FC D:\REPOS\OVERLORD\W11_STARTPROJECT\OVERLORDENGINE\PHYSXHELPER.CPP
^D:\REPOS\OVERLORD\W11_STARTPROJECT\OVERLORDENGINE\TEXTUREDATA.CPP
/c /ID:\REPOS\OVERLORD\W11_STARTPROJECT\LIBS\DX_TEX\INCLUDE /ID:\REPOS\OVERLORD\W11_STARTPROJECT\LIBS\FMOD\INC /ID:\REPOS\OVERLORD\W11_STARTPROJECT\LIBS\DX_EFFECTS11\INCLUDE /ID:\REPOS\OVERLORD\W11_STARTPROJECT\LIBS\PHYSX\INCLUDE /I"C:\PROGRAM FILES (X86)\VISUAL LEAK DETECTOR\INCLUDE" /ZI /JMC /nologo /W4 /WX /diagnostics:classic /Od /Oy- /D WIN32 /D _DEBUG /D _UNICODE /D UNICODE /Gm- /EHsc /RTC1 /MDd /GS /fp:precise /Zc:wchar_t /Zc:forScope /Zc:inline /Yu"stdafx.h" /Fp"DEBUG\OVERLORDENGINE.PCH" /Fo"DEBUG\\" /Fd"DEBUG\OVERLORDENGINE.PDB" /Gd /TP /analyze- /FC D:\REPOS\OVERLORD\W11_STARTPROJECT\OVERLORDENGINE\TEXTUREDATA.CPP
^D:\REPOS\OVERLORD\W11_STARTPROJECT\OVERLORDENGINE\TEXTUREDATALOADER.CPP
/c /ID:\REPOS\OVERLORD\W11_STARTPROJECT\LIBS\DX_TEX\INCLUDE /ID:\REPOS\OVERLORD\W11_STARTPROJECT\LIBS\FMOD\INC /ID:\REPOS\OVERLORD\W11_STARTPROJECT\LIBS\DX_EFFECTS11\INCLUDE /ID:\REPOS\OVERLORD\W11_STARTPROJECT\LIBS\PHYSX\INCLUDE /I"C:\PROGRAM FILES (X86)\VISUAL LEAK DETECTOR\INCLUDE" /ZI /JMC /nologo /W4 /WX /diagnostics:classic /Od /Oy- /D WIN32 /D _DEBUG /D _UNICODE /D UNICODE /Gm- /EHsc /RTC1 /MDd /GS /fp:precise /Zc:wchar_t /Zc:forScope /Zc:inline /Yu"stdafx.h" /Fp"DEBUG\OVERLORDENGINE.PCH" /Fo"DEBUG\\" /Fd"DEBUG\OVERLORDENGINE.PDB" /Gd /TP /analyze- /FC D:\REPOS\OVERLORD\W11_STARTPROJECT\OVERLORDENGINE\TEXTUREDATALOADER.CPP
^D:\REPOS\OVERLORD\W11_STARTPROJECT\OVERLORDENGINE\VERTEXHELPER.CPP
/c /ID:\REPOS\OVERLORD\W11_STARTPROJECT\LIBS\DX_TEX\INCLUDE /ID:\REPOS\OVERLORD\W11_STARTPROJECT\LIBS\FMOD\INC /ID:\REPOS\OVERLORD\W11_STARTPROJECT\LIBS\DX_EFFECTS11\INCLUDE /ID:\REPOS\OVERLORD\W11_STARTPROJECT\LIBS\PHYSX\INCLUDE /I"C:\PROGRAM FILES (X86)\VISUAL LEAK DETECTOR\INCLUDE" /ZI /JMC /nologo /W4 /WX /diagnostics:classic /Od /Oy- /D WIN32 /D _DEBUG /D _UNICODE /D UNICODE /Gm- /EHsc /RTC1 /MDd /GS /fp:precise /Zc:wchar_t /Zc:forScope /Zc:inline /Yu"stdafx.h" /Fp"DEBUG\OVERLORDENGINE.PCH" /Fo"DEBUG\\" /Fd"DEBUG\OVERLORDENGINE.PDB" /Gd /TP /analyze- /FC D:\REPOS\OVERLORD\W11_STARTPROJECT\OVERLORDENGINE\VERTEXHELPER.CPP
^D:\REPOS\OVERLORD\W11_STARTPROJECT\OVERLORDENGINE\PHYSXPROXY.CPP
/c /ID:\REPOS\OVERLORD\W11_STARTPROJECT\LIBS\DX_TEX\INCLUDE /ID:\REPOS\OVERLORD\W11_STARTPROJECT\LIBS\FMOD\INC /ID:\REPOS\OVERLORD\W11_STARTPROJECT\LIBS\DX_EFFECTS11\INCLUDE /ID:\REPOS\OVERLORD\W11_STARTPROJECT\LIBS\PHYSX\INCLUDE /I"C:\PROGRAM FILES (X86)\VISUAL LEAK DETECTOR\INCLUDE" /ZI /JMC /nologo /W4 /WX /diagnostics:classic /Od /Oy- /D WIN32 /D _DEBUG /D _UNICODE /D UNICODE /Gm- /EHsc /RTC1 /MDd /GS /fp:precise /Zc:wchar_t /Zc:forScope /Zc:inline /Yu"stdafx.h" /Fp"DEBUG\OVERLORDENGINE.PCH" /Fo"DEBUG\\" /Fd"DEBUG\OVERLORDENGINE.PDB" /Gd /TP /analyze- /FC D:\REPOS\OVERLORD\W11_STARTPROJECT\OVERLORDENGINE\PHYSXPROXY.CPP
^D:\REPOS\OVERLORD\W11_STARTPROJECT\OVERLORDENGINE\PHYSXERRORCALLBACK.CPP
/c /ID:\REPOS\OVERLORD\W11_STARTPROJECT\LIBS\DX_TEX\INCLUDE /ID:\REPOS\OVERLORD\W11_STARTPROJECT\LIBS\FMOD\INC /ID:\REPOS\OVERLORD\W11_STARTPROJECT\LIBS\DX_EFFECTS11\INCLUDE /ID:\REPOS\OVERLORD\W11_STARTPROJECT\LIBS\PHYSX\INCLUDE /I"C:\PROGRAM FILES (X86)\VISUAL LEAK DETECTOR\INCLUDE" /ZI /JMC /nologo /W4 /WX /diagnostics:classic /Od /Oy- /D WIN32 /D _DEBUG /D _UNICODE /D UNICODE /Gm- /EHsc /RTC1 /MDd /GS /fp:precise /Zc:wchar_t /Zc:forScope /Zc:inline /Yu"stdafx.h" /Fp"DEBUG\OVERLORDENGINE.PCH" /Fo"DEBUG\\" /Fd"DEBUG\OVERLORDENGINE.PDB" /Gd /TP /analyze- /FC D:\REPOS\OVERLORD\W11_STARTPROJECT\OVERLORDENGINE\PHYSXERRORCALLBACK.CPP
^D:\REPOS\OVERLORD\W11_STARTPROJECT\OVERLORDENGINE\PHYSXMANAGER.CPP
/c /ID:\REPOS\OVERLORD\W11_STARTPROJECT\LIBS\DX_TEX\INCLUDE /ID:\REPOS\OVERLORD\W11_STARTPROJECT\LIBS\FMOD\INC /ID:\REPOS\OVERLORD\W11_STARTPROJECT\LIBS\DX_EFFECTS11\INCLUDE /ID:\REPOS\OVERLORD\W11_STARTPROJECT\LIBS\PHYSX\INCLUDE /I"C:\PROGRAM FILES (X86)\VISUAL LEAK DETECTOR\INCLUDE" /ZI /JMC /nologo /W4 /WX /diagnostics:classic /Od /Oy- /D WIN32 /D _DEBUG /D _UNICODE /D UNICODE /Gm- /EHsc /RTC1 /MDd /GS /fp:precise /Zc:wchar_t /Zc:forScope /Zc:inline /Yu"stdafx.h" /Fp"DEBUG\OVERLORDENGINE.PCH" /Fo"DEBUG\\" /Fd"DEBUG\OVERLORDENGINE.PDB" /Gd /TP /analyze- /FC D:\REPOS\OVERLORD\W11_STARTPROJECT\OVERLORDENGINE\PHYSXMANAGER.CPP
^D:\REPOS\OVERLORD\W11_STARTPROJECT\OVERLORDENGINE\CUBEPREFAB.CPP
/c /ID:\REPOS\OVERLORD\W11_STARTPROJECT\LIBS\DX_TEX\INCLUDE /ID:\REPOS\OVERLORD\W11_STARTPROJECT\LIBS\FMOD\INC /ID:\REPOS\OVERLORD\W11_STARTPROJECT\LIBS\DX_EFFECTS11\INCLUDE /ID:\REPOS\OVERLORD\W11_STARTPROJECT\LIBS\PHYSX\INCLUDE /I"C:\PROGRAM FILES (X86)\VISUAL LEAK DETECTOR\INCLUDE" /ZI /JMC /nologo /W4 /WX /diagnostics:classic /Od /Oy- /D WIN32 /D _DEBUG /D _UNICODE /D UNICODE /Gm- /EHsc /RTC1 /MDd /GS /fp:precise /Zc:wchar_t /Zc:forScope /Zc:inline /Yu"stdafx.h" /Fp"DEBUG\OVERLORDENGINE.PCH" /Fo"DEBUG\\" /Fd"DEBUG\OVERLORDENGINE.PDB" /Gd /TP /analyze- /FC D:\REPOS\OVERLORD\W11_STARTPROJECT\OVERLORDENGINE\CUBEPREFAB.CPP
^D:\REPOS\OVERLORD\W11_STARTPROJECT\OVERLORDENGINE\LOGGER.CPP
/c /ID:\REPOS\OVERLORD\W11_STARTPROJECT\LIBS\DX_TEX\INCLUDE /ID:\REPOS\OVERLORD\W11_STARTPROJECT\LIBS\FMOD\INC /ID:\REPOS\OVERLORD\W11_STARTPROJECT\LIBS\DX_EFFECTS11\INCLUDE /ID:\REPOS\OVERLORD\W11_STARTPROJECT\LIBS\PHYSX\INCLUDE /I"C:\PROGRAM FILES (X86)\VISUAL LEAK DETECTOR\INCLUDE" /ZI /JMC /nologo /W4 /WX /diagnostics:classic /Od /Oy- /D WIN32 /D _DEBUG /D _UNICODE /D UNICODE /Gm- /EHsc /RTC1 /MDd /GS /fp:precise /Zc:wchar_t /Zc:forScope /Zc:inline /Yu"stdafx.h" /Fp"DEBUG\OVERLORDENGINE.PCH" /Fo"DEBUG\\" /Fd"DEBUG\OVERLORDENGINE.PDB" /Gd /TP /analyze- /FC D:\REPOS\OVERLORD\W11_STARTPROJECT\OVERLORDENGINE\LOGGER.CPP
^D:\REPOS\OVERLORD\W11_STARTPROJECT\OVERLORDENGINE\GAMETIME.CPP
/c /ID:\REPOS\OVERLORD\W11_STARTPROJECT\LIBS\DX_TEX\INCLUDE /ID:\REPOS\OVERLORD\W11_STARTPROJECT\LIBS\FMOD\INC /ID:\REPOS\OVERLORD\W11_STARTPROJECT\LIBS\DX_EFFECTS11\INCLUDE /ID:\REPOS\OVERLORD\W11_STARTPROJECT\LIBS\PHYSX\INCLUDE /I"C:\PROGRAM FILES (X86)\VISUAL LEAK DETECTOR\INCLUDE" /ZI /JMC /nologo /W4 /WX /diagnostics:classic /Od /Oy- /D WIN32 /D _DEBUG /D _UNICODE /D UNICODE /Gm- /EHsc /RTC1 /MDd /GS /fp:precise /Zc:wchar_t /Zc:forScope /Zc:inline /Yu"stdafx.h" /Fp"DEBUG\OVERLORDENGINE.PCH" /Fo"DEBUG\\" /Fd"DEBUG\OVERLORDENGINE.PDB" /Gd /TP /analyze- /FC D:\REPOS\OVERLORD\W11_STARTPROJECT\OVERLORDENGINE\GAMETIME.CPP
^D:\REPOS\OVERLORD\W11_STARTPROJECT\OVERLORDENGINE\GAMESPECS.CPP
/c /ID:\REPOS\OVERLORD\W11_STARTPROJECT\LIBS\DX_TEX\INCLUDE /ID:\REPOS\OVERLORD\W11_STARTPROJECT\LIBS\FMOD\INC /ID:\REPOS\OVERLORD\W11_STARTPROJECT\LIBS\DX_EFFECTS11\INCLUDE /ID:\REPOS\OVERLORD\W11_STARTPROJECT\LIBS\PHYSX\INCLUDE /I"C:\PROGRAM FILES (X86)\VISUAL LEAK DETECTOR\INCLUDE" /ZI /JMC /nologo /W4 /WX /diagnostics:classic /Od /Oy- /D WIN32 /D _DEBUG /D _UNICODE /D UNICODE /Gm- /EHsc /RTC1 /MDd /GS /fp:precise /Zc:wchar_t /Zc:forScope /Zc:inline /Yu"stdafx.h" /Fp"DEBUG\OVERLORDENGINE.PCH" /Fo"DEBUG\\" /Fd"DEBUG\OVERLORDENGINE.PDB" /Gd /TP /analyze- /FC D:\REPOS\OVERLORD\W11_STARTPROJECT\OVERLORDENGINE\GAMESPECS.CPP
^D:\REPOS\OVERLORD\W11_STARTPROJECT\OVERLORDENGINE\FIXEDCAMERA.CPP
/c /ID:\REPOS\OVERLORD\W11_STARTPROJECT\LIBS\DX_TEX\INCLUDE /ID:\REPOS\OVERLORD\W11_STARTPROJECT\LIBS\FMOD\INC /ID:\REPOS\OVERLORD\W11_STARTPROJECT\LIBS\DX_EFFECTS11\INCLUDE /ID:\REPOS\OVERLORD\W11_STARTPROJECT\LIBS\PHYSX\INCLUDE /I"C:\PROGRAM FILES (X86)\VISUAL LEAK DETECTOR\INCLUDE" /ZI /JMC /nologo /W4 /WX /diagnostics:classic /Od /Oy- /D WIN32 /D _DEBUG /D _UNICODE /D UNICODE /Gm- /EHsc /RTC1 /MDd /GS /fp:precise /Zc:wchar_t /Zc:forScope /Zc:inline /Yu"stdafx.h" /Fp"DEBUG\OVERLORDENGINE.PCH" /Fo"DEBUG\\" /Fd"DEBUG\OVERLORDENGINE.PDB" /Gd /TP /analyze- /FC D:\REPOS\OVERLORD\W11_STARTPROJECT\OVERLORDENGINE\FIXEDCAMERA.CPP
^D:\REPOS\OVERLORD\W11_STARTPROJECT\OVERLORDENGINE\FREECAMERA.CPP
/c /ID:\REPOS\OVERLORD\W11_STARTPROJECT\LIBS\DX_TEX\INCLUDE /ID:\REPOS\OVERLORD\W11_STARTPROJECT\LIBS\FMOD\INC /ID:\REPOS\OVERLORD\W11_STARTPROJECT\LIBS\DX_EFFECTS11\INCLUDE /ID:\REPOS\OVERLORD\W11_STARTPROJECT\LIBS\PHYSX\INCLUDE /I"C:\PROGRAM FILES (X86)\VISUAL LEAK DETECTOR\INCLUDE" /ZI /JMC /nologo /W4 /WX /diagnostics:classic /Od /Oy- /D WIN32 /D _DEBUG /D _UNICODE /D UNICODE /Gm- /EHsc /RTC1 /MDd /GS /fp:precise /Zc:wchar_t /Zc:forScope /Zc:inline /Yu"stdafx.h" /Fp"DEBUG\OVERLORDENGINE.PCH" /Fo"DEBUG\\" /Fd"DEBUG\OVERLORDENGINE.PDB" /Gd /TP /analyze- /FC D:\REPOS\OVERLORD\W11_STARTPROJECT\OVERLORDENGINE\FREECAMERA.CPP
^D:\REPOS\OVERLORD\W11_STARTPROJECT\OVERLORDENGINE\SPHEREPREFAB.CPP
/c /ID:\REPOS\OVERLORD\W11_STARTPROJECT\LIBS\DX_TEX\INCLUDE /ID:\REPOS\OVERLORD\W11_STARTPROJECT\LIBS\FMOD\INC /ID:\REPOS\OVERLORD\W11_STARTPROJECT\LIBS\DX_EFFECTS11\INCLUDE /ID:\REPOS\OVERLORD\W11_STARTPROJECT\LIBS\PHYSX\INCLUDE /I"C:\PROGRAM FILES (X86)\VISUAL LEAK DETECTOR\INCLUDE" /ZI /JMC /nologo /W4 /WX /diagnostics:classic /Od /Oy- /D WIN32 /D _DEBUG /D _UNICODE /D UNICODE /Gm- /EHsc /RTC1 /MDd /GS /fp:precise /Zc:wchar_t /Zc:forScope /Zc:inline /Yu"stdafx.h" /Fp"DEBUG\OVERLORDENGINE.PCH" /Fo"DEBUG\\" /Fd"DEBUG\OVERLORDENGINE.PDB" /Gd /TP /analyze- /FC D:\REPOS\OVERLORD\W11_STARTPROJECT\OVERLORDENGINE\SPHEREPREFAB.CPP
^D:\REPOS\OVERLORD\W11_STARTPROJECT\OVERLORDENGINE\TORUSPREFAB.CPP
/c /ID:\REPOS\OVERLORD\W11_STARTPROJECT\LIBS\DX_TEX\INCLUDE /ID:\REPOS\OVERLORD\W11_STARTPROJECT\LIBS\FMOD\INC /ID:\REPOS\OVERLORD\W11_STARTPROJECT\LIBS\DX_EFFECTS11\INCLUDE /ID:\REPOS\OVERLORD\W11_STARTPROJECT\LIBS\PHYSX\INCLUDE /I"C:\PROGRAM FILES (X86)\VISUAL LEAK DETECTOR\INCLUDE" /ZI /JMC /nologo /W4 /WX /diagnostics:classic /Od /Oy- /D WIN32 /D _DEBUG /D _UNICODE /D UNICODE /Gm- /EHsc /RTC1 /MDd /GS /fp:precise /Zc:wchar_t /Zc:forScope /Zc:inline /Yu"stdafx.h" /Fp"DEBUG\OVERLORDENGINE.PCH" /Fo"DEBUG\\" /Fd"DEBUG\OVERLORDENGINE.PDB" /Gd /TP /analyze- /FC D:\REPOS\OVERLORD\W11_STARTPROJECT\OVERLORDENGINE\TORUSPREFAB.CPP
^D:\REPOS\OVERLORD\W11_STARTPROJECT\OVERLORDENGINE\GAMESCENE.CPP
/c /ID:\REPOS\OVERLORD\W11_STARTPROJECT\LIBS\DX_TEX\INCLUDE /ID:\REPOS\OVERLORD\W11_STARTPROJECT\LIBS\FMOD\INC /ID:\REPOS\OVERLORD\W11_STARTPROJECT\LIBS\DX_EFFECTS11\INCLUDE /ID:\REPOS\OVERLORD\W11_STARTPROJECT\LIBS\PHYSX\INCLUDE /I"C:\PROGRAM FILES (X86)\VISUAL LEAK DETECTOR\INCLUDE" /ZI /JMC /nologo /W4 /WX /diagnostics:classic /Od /Oy- /D WIN32 /D _DEBUG /D _UNICODE /D UNICODE /Gm- /EHsc /RTC1 /MDd /GS /fp:precise /Zc:wchar_t /Zc:forScope /Zc:inline /Yu"stdafx.h" /Fp"DEBUG\OVERLORDENGINE.PCH" /Fo"DEBUG\\" /Fd"DEBUG\OVERLORDENGINE.PDB" /Gd /TP /analyze- /FC D:\REPOS\OVERLORD\W11_STARTPROJECT\OVERLORDENGINE\GAMESCENE.CPP
^D:\REPOS\OVERLORD\W11_STARTPROJECT\OVERLORDENGINE\GAMEOBJECT.CPP
/c /ID:\REPOS\OVERLORD\W11_STARTPROJECT\LIBS\DX_TEX\INCLUDE /ID:\REPOS\OVERLORD\W11_STARTPROJECT\LIBS\FMOD\INC /ID:\REPOS\OVERLORD\W11_STARTPROJECT\LIBS\DX_EFFECTS11\INCLUDE /ID:\REPOS\OVERLORD\W11_STARTPROJECT\LIBS\PHYSX\INCLUDE /I"C:\PROGRAM FILES (X86)\VISUAL LEAK DETECTOR\INCLUDE" /ZI /JMC /nologo /W4 /WX /diagnostics:classic /Od /Oy- /D WIN32 /D _DEBUG /D _UNICODE /D UNICODE /Gm- /EHsc /RTC1 /MDd /GS /fp:precise /Zc:wchar_t /Zc:forScope /Zc:inline /Yu"stdafx.h" /Fp"DEBUG\OVERLORDENGINE.PCH" /Fo"DEBUG\\" /Fd"DEBUG\OVERLORDENGINE.PDB" /Gd /TP /analyze- /FC D:\REPOS\OVERLORD\W11_STARTPROJECT\OVERLORDENGINE\GAMEOBJECT.CPP
^D:\REPOS\OVERLORD\W11_STARTPROJECT\OVERLORDENGINE\RENDERTARGET.CPP
/c /ID:\REPOS\OVERLORD\W11_STARTPROJECT\LIBS\DX_TEX\INCLUDE /ID:\REPOS\OVERLORD\W11_STARTPROJECT\LIBS\FMOD\INC /ID:\REPOS\OVERLORD\W11_STARTPROJECT\LIBS\DX_EFFECTS11\INCLUDE /ID:\REPOS\OVERLORD\W11_STARTPROJECT\LIBS\PHYSX\INCLUDE /I"C:\PROGRAM FILES (X86)\VISUAL LEAK DETECTOR\INCLUDE" /ZI /JMC /nologo /W4 /WX /diagnostics:classic /Od /Oy- /D WIN32 /D _DEBUG /D _UNICODE /D UNICODE /Gm- /EHsc /RTC1 /MDd /GS /fp:precise /Zc:wchar_t /Zc:forScope /Zc:inline /Yu"stdafx.h" /Fp"DEBUG\OVERLORDENGINE.PCH" /Fo"DEBUG\\" /Fd"DEBUG\OVERLORDENGINE.PDB" /Gd /TP /analyze- /FC D:\REPOS\OVERLORD\W11_STARTPROJECT\OVERLORDENGINE\RENDERTARGET.CPP
^D:\REPOS\OVERLORD\W11_STARTPROJECT\OVERLORDENGINE\TRANSFORMCOMPONENT.CPP
/c /ID:\REPOS\OVERLORD\W11_STARTPROJECT\LIBS\DX_TEX\INCLUDE /ID:\REPOS\OVERLORD\W11_STARTPROJECT\LIBS\FMOD\INC /ID:\REPOS\OVERLORD\W11_STARTPROJECT\LIBS\DX_EFFECTS11\INCLUDE /ID:\REPOS\OVERLORD\W11_STARTPROJECT\LIBS\PHYSX\INCLUDE /I"C:\PROGRAM FILES (X86)\VISUAL LEAK DETECTOR\INCLUDE" /ZI /JMC /nologo /W4 /WX /diagnostics:classic /Od /Oy- /D WIN32 /D _DEBUG /D _UNICODE /D UNICODE /Gm- /EHsc /RTC1 /MDd /GS /fp:precise /Zc:wchar_t /Zc:forScope /Zc:inline /Yu"stdafx.h" /Fp"DEBUG\OVERLORDENGINE.PCH" /Fo"DEBUG\\" /Fd"DEBUG\OVERLORDENGINE.PDB" /Gd /TP /analyze- /FC D:\REPOS\OVERLORD\W11_STARTPROJECT\OVERLORDENGINE\TRANSFORMCOMPONENT.CPP
^D:\REPOS\OVERLORD\W11_STARTPROJECT\OVERLORDENGINE\DEFERREDRENDERER.CPP
/c /ID:\REPOS\OVERLORD\W11_STARTPROJECT\LIBS\DX_TEX\INCLUDE /ID:\REPOS\OVERLORD\W11_STARTPROJECT\LIBS\FMOD\INC /ID:\REPOS\OVERLORD\W11_STARTPROJECT\LIBS\DX_EFFECTS11\INCLUDE /ID:\REPOS\OVERLORD\W11_STARTPROJECT\LIBS\PHYSX\INCLUDE /I"C:\PROGRAM FILES (X86)\VISUAL LEAK DETECTOR\INCLUDE" /ZI /JMC /nologo /W4 /WX /diagnostics:classic /Od /Oy- /D WIN32 /D _DEBUG /D _UNICODE /D UNICODE /Gm- /EHsc /RTC1 /MDd /GS /fp:precise /Zc:wchar_t /Zc:forScope /Zc:inline /Yu"stdafx.h" /Fp"DEBUG\OVERLORDENGINE.PCH" /Fo"DEBUG\\" /Fd"DEBUG\OVERLORDENGINE.PDB" /Gd /TP /analyze- /FC D:\REPOS\OVERLORD\W11_STARTPROJECT\OVERLORDENGINE\DEFERREDRENDERER.CPP
^D:\REPOS\OVERLORD\W11_STARTPROJECT\OVERLORDENGINE\SCENEMANAGER.CPP
/c /ID:\REPOS\OVERLORD\W11_STARTPROJECT\LIBS\DX_TEX\INCLUDE /ID:\REPOS\OVERLORD\W11_STARTPROJECT\LIBS\FMOD\INC /ID:\REPOS\OVERLORD\W11_STARTPROJECT\LIBS\DX_EFFECTS11\INCLUDE /ID:\REPOS\OVERLORD\W11_STARTPROJECT\LIBS\PHYSX\INCLUDE /I"C:\PROGRAM FILES (X86)\VISUAL LEAK DETECTOR\INCLUDE" /ZI /JMC /nologo /W4 /WX /diagnostics:classic /Od /Oy- /D WIN32 /D _DEBUG /D _UNICODE /D UNICODE /Gm- /EHsc /RTC1 /MDd /GS /fp:precise /Zc:wchar_t /Zc:forScope /Zc:inline /Yu"stdafx.h" /Fp"DEBUG\OVERLORDENGINE.PCH" /Fo"DEBUG\\" /Fd"DEBUG\OVERLORDENGINE.PDB" /Gd /TP /analyze- /FC D:\REPOS\OVERLORD\W11_STARTPROJECT\OVERLORDENGINE\SCENEMANAGER.CPP
