^D:\REPOS\OVERLORD\W11_STARTPROJECT\OVERLORDENGINE\DEBUG\BASECOMPONENT.OBJ|D:\REPOS\OVERLORD\W11_STARTPROJECT\OVERLORDENGINE\DEBUG\BINARYREADER.OBJ|D:\REPOS\OVERLORD\W11_STARTPROJECT\OVERLORDENGINE\DEBUG\CAMERACOMPONENT.OBJ|D:\REPOS\OVERLORD\W11_STARTPROJECT\OVERLORDENGINE\DEBUG\COLLIDERCOMPONENT.OBJ|D:\REPOS\OVERLORD\W11_STARTPROJECT\OVERLORDENGINE\DEBUG\CONTENTMANAGER.OBJ|D:\REPOS\OVERLORD\W11_STARTPROJECT\OVERLORDENGINE\DEBUG\CUBEPREFAB.OBJ|D:\REPOS\OVERLORD\W11_STARTPROJECT\OVERLORDENGINE\DEBUG\DEBUGRENDERER.OBJ|D:\REPOS\OVERLORD\W11_STARTPROJECT\OVERLORDENGINE\DEBUG\DEFERREDRENDERER.OBJ|D:\REPOS\OVERLORD\W11_STARTPROJECT\OVERLORDENGINE\DEBUG\EFFECTHELPER.OBJ|D:\REPOS\OVERLORD\W11_STARTPROJECT\OVERLORDENGINE\DEBUG\EFFECTLOADER.OBJ|D:\REPOS\OVERLORD\W11_STARTPROJECT\OVERLORDENGINE\DEBUG\FIXEDCAMERA.OBJ|D:\REPOS\OVERLORD\W11_STARTPROJECT\OVERLORDENGINE\DEBUG\FREECAMERA.OBJ|D:\REPOS\OVERLORD\W11_STARTPROJECT\OVERLORDENGINE\DEBUG\GAMEOBJECT.OBJ|D:\REPOS\OVERLORD\W11_STARTPROJECT\OVERLORDENGINE\DEBUG\GAMESCENE.OBJ|D:\REPOS\OVERLORD\W11_STARTPROJECT\OVERLORDENGINE\DEBUG\GAMESPECS.OBJ|D:\REPOS\OVERLORD\W11_STARTPROJECT\OVERLORDENGINE\DEBUG\GAMETIME.OBJ|D:\REPOS\OVERLORD\W11_STARTPROJECT\OVERLORDENGINE\DEBUG\INPUTMANAGER.OBJ|D:\REPOS\OVERLORD\W11_STARTPROJECT\OVERLORDENGINE\DEBUG\LOGGER.OBJ|D:\REPOS\OVERLORD\W11_STARTPROJECT\OVERLORDENGINE\DEBUG\MATERIAL.OBJ|D:\REPOS\OVERLORD\W11_STARTPROJECT\OVERLORDENGINE\DEBUG\MATERIALMANAGER.OBJ|D:\REPOS\OVERLORD\W11_STARTPROJECT\OVERLORDENGINE\DEBUG\MESHDRAWCOMPONENT.OBJ|D:\REPOS\OVERLORD\W11_STARTPROJECT\OVERLORDENGINE\DEBUG\MESHFILTER.OBJ|D:\REPOS\OVERLORD\W11_STARTPROJECT\OVERLORDENGINE\DEBUG\MESHFILTERLOADER.OBJ|D:\REPOS\OVERLORD\W11_STARTPROJECT\OVERLORDENGINE\DEBUG\MESHINDEXEDDRAWCOMPONENT.OBJ|D:\REPOS\OVERLORD\W11_STARTPROJECT\OVERLORDENGINE\DEBUG\MODELCOMPONENT.OBJ|D:\REPOS\OVERLORD\W11_STARTPROJECT\OVERLORDENGINE\DEBUG\OVERLORDGAME.OBJ|D:\REPOS\OVERLORD\W11_STARTPROJECT\OVERLORDENGINE\DEBUG\PHYSXERRORCALLBACK.OBJ|D:\REPOS\OVERLORD\W11_STARTPROJECT\OVERLORDENGINE\DEBUG\PHYSXHELPER.OBJ|D:\REPOS\OVERLORD\W11_STARTPROJECT\OVERLORDENGINE\DEBUG\PHYSXMANAGER.OBJ|D:\REPOS\OVERLORD\W11_STARTPROJECT\OVERLORDENGINE\DEBUG\PHYSXPROXY.OBJ|D:\REPOS\OVERLORD\W11_STARTPROJECT\OVERLORDENGINE\DEBUG\POSTPROCESSINGMATERIAL.OBJ|D:\REPOS\OVERLORD\W11_STARTPROJECT\OVERLORDENGINE\DEBUG\PXCONVEXMESHLOADER.OBJ|D:\REPOS\OVERLORD\W11_STARTPROJECT\OVERLORDENGINE\DEBUG\PXTRIANGLEMESHLOADER.OBJ|D:\REPOS\OVERLORD\W11_STARTPROJECT\OVERLORDENGINE\DEBUG\QUADDRAWER.OBJ|D:\REPOS\OVERLORD\W11_STARTPROJECT\OVERLORDENGINE\DEBUG\QUADMATERIAL.OBJ|D:\REPOS\OVERLORD\W11_STARTPROJECT\OVERLORDENGINE\DEBUG\RENDERTARGET.OBJ|D:\REPOS\OVERLORD\W11_STARTPROJECT\OVERLORDENGINE\DEBUG\RIGIDBODYCOMPONENT.OBJ|D:\REPOS\OVERLORD\W11_STARTPROJECT\OVERLORDENGINE\DEBUG\SCENEMANAGER.OBJ|D:\REPOS\OVERLORD\W11_STARTPROJECT\OVERLORDENGINE\DEBUG\SOUNDMANAGER.OBJ|D:\REPOS\OVERLORD\W11_STARTPROJECT\OVERLORDENGINE\DEBUG\SPHEREPREFAB.OBJ|D:\REPOS\OVERLORD\W11_STARTPROJECT\OVERLORDENGINE\DEBUG\STDAFX.OBJ|D:\REPOS\OVERLORD\W11_STARTPROJECT\OVERLORDENGINE\DEBUG\TEXTUREDATA.OBJ|D:\REPOS\OVERLORD\W11_STARTPROJECT\OVERLORDENGINE\DEBUG\TEXTUREDATALOADER.OBJ|D:\REPOS\OVERLORD\W11_STARTPROJECT\OVERLORDENGINE\DEBUG\TORUSPREFAB.OBJ|D:\REPOS\OVERLORD\W11_STARTPROJECT\OVERLORDENGINE\DEBUG\TRANSFORMCOMPONENT.OBJ|D:\REPOS\OVERLORD\W11_STARTPROJECT\OVERLORDENGINE\DEBUG\VERTEXHELPER.OBJ
D:\REPOS\OVERLORD\W11_STARTPROJECT\OVERLORDENGINE\DEBUG\DEFERREDRENDERER.OBJ
C:\WINDOWS\SYSTEM32\TZRES.DLL
D:\REPOS\OVERLORD\W11_STARTPROJECT\OVERLORDENGINE\DEBUG\MATERIAL.OBJ
D:\REPOS\OVERLORD\W11_STARTPROJECT\OVERLORDENGINE\DEBUG\MATERIALMANAGER.OBJ
D:\REPOS\OVERLORD\W11_STARTPROJECT\OVERLORDENGINE\DEBUG\MESHFILTER.OBJ
D:\REPOS\OVERLORD\W11_STARTPROJECT\OVERLORDENGINE\DEBUG\MESHFILTERLOADER.OBJ
D:\REPOS\OVERLORD\W11_STARTPROJECT\OVERLORDENGINE\DEBUG\MODELCOMPONENT.OBJ
D:\REPOS\OVERLORD\W11_STARTPROJECT\OVERLORDENGINE\DEBUG\POSTPROCESSINGMATERIAL.OBJ
D:\REPOS\OVERLORD\W11_STARTPROJECT\OVERLORDENGINE\DEBUG\PXCONVEXMESHLOADER.OBJ
D:\REPOS\OVERLORD\W11_STARTPROJECT\OVERLORDENGINE\DEBUG\PXTRIANGLEMESHLOADER.OBJ
D:\REPOS\OVERLORD\W11_STARTPROJECT\OVERLORDENGINE\DEBUG\QUADDRAWER.OBJ
D:\REPOS\OVERLORD\W11_STARTPROJECT\OVERLORDENGINE\DEBUG\QUADMATERIAL.OBJ
D:\REPOS\OVERLORD\W11_STARTPROJECT\OVERLORDENGINE\DEBUG\SOUNDMANAGER.OBJ
D:\REPOS\OVERLORD\W11_STARTPROJECT\OVERLORDENGINE\DEBUG\RIGIDBODYCOMPONENT.OBJ
D:\REPOS\OVERLORD\W11_STARTPROJECT\OVERLORDENGINE\DEBUG\INPUTMANAGER.OBJ
D:\REPOS\OVERLORD\W11_STARTPROJECT\OVERLORDENGINE\DEBUG\COLLIDERCOMPONENT.OBJ
D:\REPOS\OVERLORD\W11_STARTPROJECT\OVERLORDENGINE\DEBUG\CAMERACOMPONENT.OBJ
D:\REPOS\OVERLORD\W11_STARTPROJECT\OVERLORDENGINE\DEBUG\BASECOMPONENT.OBJ
D:\REPOS\OVERLORD\W11_STARTPROJECT\OVERLORDENGINE\DEBUG\OVERLORDGAME.OBJ
D:\REPOS\OVERLORD\W11_STARTPROJECT\OVERLORDENGINE\DEBUG\MESHDRAWCOMPONENT.OBJ
D:\REPOS\OVERLORD\W11_STARTPROJECT\OVERLORDENGINE\DEBUG\MESHINDEXEDDRAWCOMPONENT.OBJ
D:\REPOS\OVERLORD\W11_STARTPROJECT\OVERLORDENGINE\DEBUG\CONTENTMANAGER.OBJ
D:\REPOS\OVERLORD\W11_STARTPROJECT\OVERLORDENGINE\DEBUG\EFFECTLOADER.OBJ
D:\REPOS\OVERLORD\W11_STARTPROJECT\OVERLORDENGINE\DEBUG\DEBUGRENDERER.OBJ
D:\REPOS\OVERLORD\W11_STARTPROJECT\OVERLORDENGINE\DEBUG\EFFECTHELPER.OBJ
D:\REPOS\OVERLORD\W11_STARTPROJECT\OVERLORDENGINE\DEBUG\BINARYREADER.OBJ
D:\REPOS\OVERLORD\W11_STARTPROJECT\OVERLORDENGINE\DEBUG\PHYSXHELPER.OBJ
D:\REPOS\OVERLORD\W11_STARTPROJECT\OVERLORDENGINE\DEBUG\TEXTUREDATA.OBJ
D:\REPOS\OVERLORD\W11_STARTPROJECT\OVERLORDENGINE\DEBUG\TEXTUREDATALOADER.OBJ
D:\REPOS\OVERLORD\W11_STARTPROJECT\OVERLORDENGINE\DEBUG\VERTEXHELPER.OBJ
D:\REPOS\OVERLORD\W11_STARTPROJECT\OVERLORDENGINE\DEBUG\PHYSXPROXY.OBJ
D:\REPOS\OVERLORD\W11_STARTPROJECT\OVERLORDENGINE\DEBUG\PHYSXERRORCALLBACK.OBJ
D:\REPOS\OVERLORD\W11_STARTPROJECT\OVERLORDENGINE\DEBUG\PHYSXMANAGER.OBJ
D:\REPOS\OVERLORD\W11_STARTPROJECT\OVERLORDENGINE\DEBUG\CUBEPREFAB.OBJ
D:\REPOS\OVERLORD\W11_STARTPROJECT\OVERLORDENGINE\DEBUG\LOGGER.OBJ
D:\REPOS\OVERLORD\W11_STARTPROJECT\OVERLORDENGINE\DEBUG\GAMETIME.OBJ
D:\REPOS\OVERLORD\W11_STARTPROJECT\OVERLORDENGINE\DEBUG\GAMESPECS.OBJ
D:\REPOS\OVERLORD\W11_STARTPROJECT\OVERLORDENGINE\DEBUG\FIXEDCAMERA.OBJ
D:\REPOS\OVERLORD\W11_STARTPROJECT\OVERLORDENGINE\DEBUG\FREECAMERA.OBJ
D:\REPOS\OVERLORD\W11_STARTPROJECT\OVERLORDENGINE\DEBUG\SPHEREPREFAB.OBJ
D:\REPOS\OVERLORD\W11_STARTPROJECT\OVERLORDENGINE\DEBUG\TORUSPREFAB.OBJ
D:\REPOS\OVERLORD\W11_STARTPROJECT\OVERLORDENGINE\DEBUG\GAMESCENE.OBJ
D:\REPOS\OVERLORD\W11_STARTPROJECT\OVERLORDENGINE\DEBUG\GAMEOBJECT.OBJ
D:\REPOS\OVERLORD\W11_STARTPROJECT\OVERLORDENGINE\DEBUG\RENDERTARGET.OBJ
D:\REPOS\OVERLORD\W11_STARTPROJECT\OVERLORDENGINE\DEBUG\SCENEMANAGER.OBJ
D:\REPOS\OVERLORD\W11_STARTPROJECT\OVERLORDENGINE\DEBUG\TRANSFORMCOMPONENT.OBJ
D:\REPOS\OVERLORD\W11_STARTPROJECT\OVERLORDENGINE\DEBUG\STDAFX.OBJ
C:\WINDOWS\GLOBALIZATION\SORTING\SORTDEFAULT.NLS
